assignment1/simulation/qsim/assignment1.msim.vcd
$comment
	File created using the following command:
		vcd file assignment1.msim.vcd -direction
$end
$date
	Thu Nov 09 22:49:20 2023
$end
$version
	ModelSim Version 2020.1
$end
$timescale
	1ps
$end

$scope module encoder_vhd_vec_tst $end
$var wire 1 ! clk $end
$var wire 1 " cont [2] $end
$var wire 1 # cont [1] $end
$var wire 1 $ cont [0] $end
$var wire 1 % dOut [7] $end
$var wire 1 & dOut [6] $end
$var wire 1 ' dOut [5] $end
$var wire 1 ( dOut [4] $end
$var wire 1 ) dOut [3] $end
$var wire 1 * dOut [2] $end
$var wire 1 + dOut [1] $end
$var wire 1 , dOut [0] $end
$var wire 1 - nGRst $end
$var wire 1 . sIn $end
$var wire 1 / statO [5] $end
$var wire 1 0 statO [4] $end
$var wire 1 1 statO [3] $end
$var wire 1 2 statO [2] $end
$var wire 1 3 statO [1] $end
$var wire 1 4 statO [0] $end

$scope module i1 $end
$var wire 1 5 gnd $end
$var wire 1 6 vcc $end
$var wire 1 7 unknown $end
$var wire 1 8 devoe $end
$var wire 1 9 devclrn $end
$var wire 1 : devpor $end
$var wire 1 ; ww_devoe $end
$var wire 1 < ww_devclrn $end
$var wire 1 = ww_devpor $end
$var wire 1 > ww_clk $end
$var wire 1 ? ww_sIn $end
$var wire 1 @ ww_nGRst $end
$var wire 1 A ww_dOut [7] $end
$var wire 1 B ww_dOut [6] $end
$var wire 1 C ww_dOut [5] $end
$var wire 1 D ww_dOut [4] $end
$var wire 1 E ww_dOut [3] $end
$var wire 1 F ww_dOut [2] $end
$var wire 1 G ww_dOut [1] $end
$var wire 1 H ww_dOut [0] $end
$var wire 1 I ww_cont [2] $end
$var wire 1 J ww_cont [1] $end
$var wire 1 K ww_cont [0] $end
$var wire 1 L ww_statO [5] $end
$var wire 1 M ww_statO [4] $end
$var wire 1 N ww_statO [3] $end
$var wire 1 O ww_statO [2] $end
$var wire 1 P ww_statO [1] $end
$var wire 1 Q ww_statO [0] $end
$var wire 1 R \dOut[0]~output_o\ $end
$var wire 1 S \dOut[1]~output_o\ $end
$var wire 1 T \dOut[2]~output_o\ $end
$var wire 1 U \dOut[3]~output_o\ $end
$var wire 1 V \dOut[4]~output_o\ $end
$var wire 1 W \dOut[5]~output_o\ $end
$var wire 1 X \dOut[6]~output_o\ $end
$var wire 1 Y \dOut[7]~output_o\ $end
$var wire 1 Z \cont[0]~output_o\ $end
$var wire 1 [ \cont[1]~output_o\ $end
$var wire 1 \ \cont[2]~output_o\ $end
$var wire 1 ] \statO[0]~output_o\ $end
$var wire 1 ^ \statO[1]~output_o\ $end
$var wire 1 _ \statO[2]~output_o\ $end
$var wire 1 ` \statO[3]~output_o\ $end
$var wire 1 a \statO[4]~output_o\ $end
$var wire 1 b \statO[5]~output_o\ $end
$var wire 1 c \clk~input_o\ $end
$var wire 1 d \bc|ff0|Q~0_combout\ $end
$var wire 1 e \bc|ff1|Q~0_combout\ $end
$var wire 1 f \bc|ff1|Q~q\ $end
$var wire 1 g \bc|ff2|Q~0_combout\ $end
$var wire 1 h \bc|ff2|Q~q\ $end
$var wire 1 i \bc|ff3|Q~0_combout\ $end
$var wire 1 j \bc|ff3|Q~q\ $end
$var wire 1 k \bc|ff4|Q~0_combout\ $end
$var wire 1 l \bc|ff4|Q~q\ $end
$var wire 1 m \con|nad2|y~0_combout\ $end
$var wire 1 n \nGRst~input_o\ $end
$var wire 1 o \con|nad2|y~1_combout\ $end
$var wire 1 p \bc|ff0|Q~q\ $end
$var wire 1 q \bc|ff5|Q~0_combout\ $end
$var wire 1 r \bc|ff5|Q~q\ $end
$var wire 1 s \con|nord|y~0_combout\ $end
$var wire 1 t \sIn~input_o\ $end
$var wire 1 u \sr|ff0|ff|Q~q\ $end
$var wire 1 v \sr|ff1|ff|Q~q\ $end
$var wire 1 w \sr|ff2|ff|Q~q\ $end
$var wire 1 x \sr|ff3|ff|Q~q\ $end
$var wire 1 y \sr|ff4|ff|Q~q\ $end
$var wire 1 z \sr|ff5|ff|Q~q\ $end
$var wire 1 { \sr|ff6|ff|Q~q\ $end
$var wire 1 | \sr|ff7|ff|Q~q\ $end
$var wire 1 } \bb1|xor4|y~combout\ $end
$var wire 1 ~ \con|nad4|y~0_combout\ $end
$var wire 1 !! \pr8|ff0|Q~q\ $end
$var wire 1 "! \bb1|xor3|y~combout\ $end
$var wire 1 #! \pr8|ff1|Q~q\ $end
$var wire 1 $! \bb1|xor2|y~combout\ $end
$var wire 1 %! \pr8|ff2|Q~q\ $end
$var wire 1 &! \pr8|ff3|Q~0_combout\ $end
$var wire 1 '! \pr8|ff3|Q~q\ $end
$var wire 1 (! \pr8|ff4|Q~0_combout\ $end
$var wire 1 )! \pr8|ff4|Q~q\ $end
$var wire 1 *! \bb1|xor1|y~combout\ $end
$var wire 1 +! \pr8|ff5|Q~q\ $end
$var wire 1 ,! \pr8|ff6|Q~0_combout\ $end
$var wire 1 -! \pr8|ff6|Q~q\ $end
$var wire 1 .! \bb1|xor0|y~combout\ $end
$var wire 1 /! \pr8|ff7|Q~q\ $end
$var wire 1 0! \ALT_INV_sIn~input_o\ $end
$var wire 1 1! \ALT_INV_nGRst~input_o\ $end
$var wire 1 2! \ALT_INV_clk~input_o\ $end
$var wire 1 3! \pr8|ff0|ALT_INV_Q~q\ $end
$var wire 1 4! \pr8|ff2|ALT_INV_Q~q\ $end
$var wire 1 5! \pr8|ff1|ALT_INV_Q~q\ $end
$var wire 1 6! \pr8|ff3|ALT_INV_Q~q\ $end
$var wire 1 7! \pr8|ff4|ALT_INV_Q~q\ $end
$var wire 1 8! \pr8|ff5|ALT_INV_Q~q\ $end
$var wire 1 9! \pr8|ff6|ALT_INV_Q~q\ $end
$var wire 1 :! \pr8|ff7|ALT_INV_Q~q\ $end
$var wire 1 ;! \bc|ff5|ALT_INV_Q~q\ $end
$var wire 1 <! \bc|ff0|ALT_INV_Q~q\ $end
$var wire 1 =! \bc|ff1|ALT_INV_Q~q\ $end
$var wire 1 >! \bc|ff2|ALT_INV_Q~q\ $end
$var wire 1 ?! \bc|ff3|ALT_INV_Q~q\ $end
$var wire 1 @! \con|nad2|ALT_INV_y~0_combout\ $end
$var wire 1 A! \bc|ff4|ALT_INV_Q~q\ $end
$var wire 1 B! \con|nad2|ALT_INV_y~1_combout\ $end
$var wire 1 C! \con|nad4|ALT_INV_y~0_combout\ $end
$var wire 1 D! \sr|ff7|ff|ALT_INV_Q~q\ $end
$var wire 1 E! \sr|ff0|ff|ALT_INV_Q~q\ $end
$var wire 1 F! \sr|ff1|ff|ALT_INV_Q~q\ $end
$var wire 1 G! \sr|ff2|ff|ALT_INV_Q~q\ $end
$var wire 1 H! \sr|ff4|ff|ALT_INV_Q~q\ $end
$var wire 1 I! \sr|ff3|ff|ALT_INV_Q~q\ $end
$var wire 1 J! \sr|ff5|ff|ALT_INV_Q~q\ $end
$var wire 1 K! \sr|ff6|ff|ALT_INV_Q~q\ $end
$upscope $end
$upscope $end
$enddefinitions $end
#0
$dumpvars
0!
0-
0.
05
16
x7
18
19
1:
1;
1<
1=
0>
0?
0@
1R
1S
1T
1U
1V
1W
1X
1Y
1Z
1[
0\
0]
0^
0_
0`
0a
0b
0c
1d
0e
0f
0g
0h
0i
0j
0k
0l
1m
0n
0o
0p
0q
0r
0s
0t
0u
0v
0w
0x
0y
0z
0{
0|
1}
0~
0!!
1"!
0#!
1$!
0%!
1&!
0'!
1(!
0)!
1*!
0+!
1,!
0-!
1.!
0/!
10!
11!
12!
13!
14!
15!
16!
17!
18!
19!
1:!
1;!
1<!
1=!
1>!
1?!
0@!
1A!
1B!
1C!
1D!
1E!
1F!
1G!
1H!
1I!
1J!
1K!
1A
1B
1C
1D
1E
1F
1G
1H
0I
1J
1K
0L
0M
0N
0O
0P
0Q
0"
1#
1$
1%
1&
1'
1(
1)
1*
1+
1,
0/
00
01
02
03
04
$end
#5000
1!
1>
1c
02!
1p
1o
1~
0<!
0C!
0B!
0d
1e
0p
1]
1<!
1Q
0Z
0[
1d
0e
14
0K
0J
0]
0$
0#
0Q
04
#10000
0!
1-
0>
1@
1n
0c
12!
01!
0o
0~
1C!
1B!
1Z
1[
1K
1J
1$
1#
#15000
1!
1>
1c
02!
1p
0<!
0d
1e
1~
0C!
1]
1Q
14
0[
0J
0#
#20000
0!
0>
0c
12!
0~
1C!
1[
1J
1#
#25000
1!
1>
1c
02!
1f
0p
1~
1<!
0=!
0C!
0m
1d
0~
1C!
1@!
0]
1^
0Q
1P
0[
04
13
0J
1[
0#
1J
1#
#30000
0!
0>
0c
12!
#35000
1!
1>
1c
02!
1p
0<!
0d
0e
1g
1]
1Q
14
#40000
0!
0>
0c
12!
#45000
1!
1>
1c
02!
0f
1h
0p
1<!
0>!
1=!
1d
0]
1_
0^
0Q
1O
0P
04
03
12
#50000
0!
0>
0c
12!
#55000
1!
1>
1c
02!
1p
0<!
0d
1e
1]
1Q
14
#60000
0!
0>
0c
12!
#65000
1!
1>
1c
02!
1f
0p
1<!
0=!
1d
0]
1^
0Q
1P
04
13
#70000
0!
0>
0c
12!
#75000
1!
1>
1c
02!
1p
0<!
0d
0e
0g
1i
1]
1Q
14
#80000
0!
0>
0c
12!
#85000
1!
1>
1c
02!
0f
0h
1j
0p
1<!
0?!
1>!
1=!
1d
0]
1`
0_
0^
0Q
1N
0O
0P
04
03
02
11
#90000
0!
0>
0c
12!
#95000
1!
1>
1c
02!
1p
0<!
0d
1e
1]
1Q
14
#100000
0!
0>
0c
12!
#105000
1!
1>
1c
02!
1f
0p
1<!
0=!
1d
0]
1^
0Q
1P
04
13
#110000
0!
0>
0c
12!
#115000
1!
1>
1c
02!
1p
0<!
0d
0e
1g
1]
1Q
14
#120000
0!
0>
0c
12!
#125000
1!
1>
1c
02!
0f
1h
0p
1<!
0>!
1=!
1d
0]
1_
0^
0Q
1O
0P
04
03
12
#130000
0!
0>
0c
12!
#135000
1!
1>
1c
02!
1p
0<!
0d
1e
1]
1Q
14
#140000
0!
0>
0c
12!
#145000
1!
1>
1c
02!
1f
0p
1<!
0=!
1d
0]
1^
0Q
1P
04
13
#150000
0!
0>
0c
12!
#155000
1!
1>
1c
02!
1p
0<!
0d
0e
0g
0i
1k
1]
1Q
14
#160000
0!
0>
0c
12!
#165000
1!
1>
1c
02!
0f
0h
0j
1l
0p
1<!
0A!
1?!
1>!
1=!
1d
0]
1a
0`
0_
0^
0Q
1M
0N
0O
0P
04
03
02
01
10
#170000
0!
0>
0c
12!
#175000
1!
1>
1c
02!
1p
0<!
0d
1e
1]
1Q
14
#180000
0!
0>
0c
12!
#185000
1!
1>
1c
02!
1f
0p
1<!
0=!
1d
0]
1^
0Q
1P
04
13
#190000
0!
0>
0c
12!
#195000
1!
1>
1c
02!
1p
0<!
0d
0e
1g
1]
1Q
14
#200000
0!
0>
0c
12!
#205000
1!
1>
1c
02!
0f
1h
0p
1<!
0>!
1=!
1d
0]
1_
0^
0Q
1O
0P
04
03
12
#210000
0!
0>
0c
12!
#215000
1!
1>
1c
02!
1p
0<!
0d
1e
1]
1Q
14
#220000
0!
0>
0c
12!
#225000
1!
1>
1c
02!
1f
0p
1<!
0=!
1d
0]
1^
0Q
1P
04
13
#230000
0!
0>
0c
12!
#235000
1!
1>
1c
02!
1p
0<!
0d
0e
0g
1i
1]
1Q
14
#240000
0!
0>
0c
12!
#245000
1!
1>
1c
02!
0f
0h
1j
0p
1<!
0?!
1>!
1=!
1d
0]
1`
0_
0^
0Q
1N
0O
0P
04
03
02
11
#250000
0!
0>
0c
12!
#255000
1!
1>
1c
02!
1p
0<!
0d
1e
1]
1Q
14
#260000
0!
0>
0c
12!
#265000
1!
1>
1c
02!
1f
0p
1<!
0=!
1d
0]
1^
0Q
1P
04
13
#270000
0!
0>
0c
12!
#275000
1!
1>
1c
02!
1p
0<!
0d
0e
1g
1]
1Q
14
#280000
0!
0>
0c
12!
#285000
1!
1>
1c
02!
0f
1h
0p
1<!
0>!
1=!
1d
0]
1_
0^
0Q
1O
0P
04
03
12
#290000
0!
0>
0c
12!
#295000
1!
1>
1c
02!
1p
0<!
0d
1e
1]
1Q
14
#300000
0!
0>
0c
12!
#305000
1!
1>
1c
02!
1f
0p
1<!
0=!
1d
0]
1^
0Q
1P
04
13
#310000
0!
0>
0c
12!
#315000
1!
1>
1c
02!
1p
0<!
0d
0e
0g
0i
0k
1q
1]
1Q
14
#320000
0!
0>
0c
12!
#325000
1!
1>
1c
02!
0f
0h
0j
0l
0p
1r
0;!
1<!
1A!
1?!
1>!
1=!
1m
1d
0@!
1b
0]
0a
0`
0_
0^
1L
0Q
0M
0N
0O
0P
04
03
02
01
00
1/
#330000
0!
0>
0c
12!
1s
1!!
1#!
1%!
1'!
1)!
1+!
1-!
1/!
0:!
09!
08!
07!
06!
04!
05!
03!
1\
1I
1"
0R
0S
0T
0U
0V
0W
0X
0Y
0H
0G
0F
0E
0D
0C
0B
0A
0,
0+
0*
0)
0(
0'
0&
0%
#335000
1!
1>
1c
02!
1p
0s
0<!
0d
1e
1o
0B!
1]
0\
0p
0r
1Q
1;!
1<!
0I
14
0"
0Z
1d
0e
0o
0q
1B!
0K
0b
0]
0$
0L
0Q
04
0/
1Z
1K
1$
#340000
0!
0>
0c
12!
#345000
1!
1>
1c
02!
1p
0<!
0d
1e
1~
0C!
1]
0!!
0#!
0%!
0'!
0)!
0+!
0-!
0/!
1Q
1:!
19!
18!
17!
16!
14!
15!
13!
14
0[
0J
0#
1R
1S
1T
1U
1V
1W
1X
1Y
1H
1G
1F
1E
1D
1C
1B
1A
1,
1+
1*
1)
1(
1'
1&
1%
#350000
0!
0>
0c
12!
0~
1C!
1[
1J
1#
#355000
1!
1>
1c
02!
1f
0p
1~
1<!
0=!
0C!
0m
1d
0~
1C!
1@!
0]
1^
0Q
1P
0[
04
13
0J
1[
0#
1J
1#
#360000
0!
0>
0c
12!
#365000
1!
1>
1c
02!
1p
0<!
0d
0e
1g
1]
1Q
14
#370000
0!
0>
0c
12!
#375000
1!
1>
1c
02!
0f
1h
0p
1<!
0>!
1=!
1d
0]
1_
0^
0Q
1O
0P
04
03
12
#380000
0!
0>
0c
12!
#385000
1!
1>
1c
02!
1p
0<!
0d
1e
1]
1Q
14
#390000
0!
0>
0c
12!
#395000
1!
1>
1c
02!
1f
0p
1<!
0=!
1d
0]
1^
0Q
1P
04
13
#400000
0!
0>
0c
12!
#405000
1!
1>
1c
02!
1p
0<!
0d
0e
0g
1i
1]
1Q
14
#410000
0!
0>
0c
12!
#415000
1!
1>
1c
02!
0f
0h
1j
0p
1<!
0?!
1>!
1=!
1d
0]
1`
0_
0^
0Q
1N
0O
0P
04
03
02
11
#420000
0!
0>
0c
12!
#425000
1!
1>
1c
02!
1p
0<!
0d
1e
1]
1Q
14
#430000
0!
0>
0c
12!
#435000
1!
1>
1c
02!
1f
0p
1<!
0=!
1d
0]
1^
0Q
1P
04
13
#440000
0!
0>
0c
12!
#445000
1!
1>
1c
02!
1p
0<!
0d
0e
1g
1]
1Q
14
#450000
0!
0>
0c
12!
#455000
1!
1>
1c
02!
0f
1h
0p
1<!
0>!
1=!
1d
0]
1_
0^
0Q
1O
0P
04
03
12
#460000
0!
0>
0c
12!
#465000
1!
1>
1c
02!
1p
0<!
0d
1e
1]
1Q
14
#470000
0!
0>
0c
12!
#475000
1!
1>
1c
02!
1f
0p
1<!
0=!
1d
0]
1^
0Q
1P
04
13
#480000
0!
0>
0c
12!
#485000
1!
1>
1c
02!
1p
0<!
0d
0e
0g
0i
1k
1]
1Q
14
#490000
0!
0>
0c
12!
#495000
1!
1>
1c
02!
0f
0h
0j
1l
0p
1<!
0A!
1?!
1>!
1=!
1d
0]
1a
0`
0_
0^
0Q
1M
0N
0O
0P
04
03
02
01
10
#500000
0!
0>
0c
12!
#505000
1!
1>
1c
02!
1p
0<!
0d
1e
1]
1Q
14
#510000
0!
0>
0c
12!
#515000
1!
1>
1c
02!
1f
0p
1<!
0=!
1d
0]
1^
0Q
1P
04
13
#520000
0!
0>
0c
12!
#525000
1!
1>
1c
02!
1p
0<!
0d
0e
1g
1]
1Q
14
#530000
0!
0>
0c
12!
#535000
1!
1>
1c
02!
0f
1h
0p
1<!
0>!
1=!
1d
0]
1_
0^
0Q
1O
0P
04
03
12
#540000
0!
0>
0c
12!
#545000
1!
1>
1c
02!
1p
0<!
0d
1e
1]
1Q
14
#550000
0!
0>
0c
12!
#555000
1!
1>
1c
02!
1f
0p
1<!
0=!
1d
0]
1^
0Q
1P
04
13
#560000
0!
0>
0c
12!
#565000
1!
1>
1c
02!
1p
0<!
0d
0e
0g
1i
1]
1Q
14
#570000
0!
0>
0c
12!
#575000
1!
1>
1c
02!
0f
0h
1j
0p
1<!
0?!
1>!
1=!
1d
0]
1`
0_
0^
0Q
1N
0O
0P
04
03
02
11
#580000
0!
0>
0c
12!
#585000
1!
1>
1c
02!
1p
0<!
0d
1e
1]
1Q
14
#590000
0!
0>
0c
12!
#595000
1!
1>
1c
02!
1f
0p
1<!
0=!
1d
0]
1^
0Q
1P
04
13
#600000
0!
0>
0c
12!
#605000
1!
1>
1c
02!
1p
0<!
0d
0e
1g
1]
1Q
14
#610000
0!
0>
0c
12!
#615000
1!
1>
1c
02!
0f
1h
0p
1<!
0>!
1=!
1d
0]
1_
0^
0Q
1O
0P
04
03
12
#620000
0!
0>
0c
12!
#625000
1!
1>
1c
02!
1p
0<!
0d
1e
1]
1Q
14
#630000
0!
0>
0c
12!
#635000
1!
1>
1c
02!
1f
0p
1<!
0=!
1d
0]
1^
0Q
1P
04
13
#640000
0!
0>
0c
12!
#645000
1!
1>
1c
02!
1p
0<!
0d
0e
0g
0i
0k
1q
1]
1Q
14
#650000
0!
0>
0c
12!
#655000
1!
1>
1c
02!
0f
0h
0j
0l
0p
1r
0;!
1<!
1A!
1?!
1>!
1=!
1m
1d
0@!
1b
0]
0a
0`
0_
0^
1L
0Q
0M
0N
0O
0P
04
03
02
01
00
1/
#660000
0!
0>
0c
12!
1s
1!!
1#!
1%!
1'!
1)!
1+!
1-!
1/!
0:!
09!
08!
07!
06!
04!
05!
03!
1\
1I
1"
0R
0S
0T
0U
0V
0W
0X
0Y
0H
0G
0F
0E
0D
0C
0B
0A
0,
0+
0*
0)
0(
0'
0&
0%
#665000
1!
1>
1c
02!
1p
0s
0<!
0d
1e
1o
0B!
1]
0\
0p
0r
1Q
1;!
1<!
0I
14
0"
0Z
1d
0e
0o
0q
1B!
0K
0b
0]
0$
0L
0Q
04
0/
1Z
1K
1$
#670000
0!
0>
0c
12!
#675000
1!
1>
1c
02!
1p
0<!
0d
1e
1~
0C!
1]
0!!
0#!
0%!
0'!
0)!
0+!
0-!
0/!
1Q
1:!
19!
18!
17!
16!
14!
15!
13!
14
0[
0J
0#
1R
1S
1T
1U
1V
1W
1X
1Y
1H
1G
1F
1E
1D
1C
1B
1A
1,
1+
1*
1)
1(
1'
1&
1%
#680000
0!
0>
0c
12!
0~
1C!
1[
1J
1#
#685000
1!
1>
1c
02!
1f
0p
1~
1<!
0=!
0C!
0m
1d
0~
1C!
1@!
0]
1^
0Q
1P
0[
04
13
0J
1[
0#
1J
1#
#690000
0!
0>
0c
12!
#695000
1!
1>
1c
02!
1p
0<!
0d
0e
1g
1]
1Q
14
#700000
0!
0>
0c
12!
#705000
1!
1>
1c
02!
0f
1h
0p
1<!
0>!
1=!
1d
0]
1_
0^
0Q
1O
0P
04
03
12
#710000
0!
0>
0c
12!
#715000
1!
1>
1c
02!
1p
0<!
0d
1e
1]
1Q
14
#720000
0!
0>
0c
12!
#725000
1!
1>
1c
02!
1f
0p
1<!
0=!
1d
0]
1^
0Q
1P
04
13
#730000
0!
0>
0c
12!
#735000
1!
1>
1c
02!
1p
0<!
0d
0e
0g
1i
1]
1Q
14
#740000
0!
0>
0c
12!
#745000
1!
1>
1c
02!
0f
0h
1j
0p
1<!
0?!
1>!
1=!
1d
0]
1`
0_
0^
0Q
1N
0O
0P
04
03
02
11
#750000
0!
0>
0c
12!
#755000
1!
1>
1c
02!
1p
0<!
0d
1e
1]
1Q
14
#760000
0!
0>
0c
12!
#765000
1!
1>
1c
02!
1f
0p
1<!
0=!
1d
0]
1^
0Q
1P
04
13
#770000
0!
0>
0c
12!
#775000
1!
1>
1c
02!
1p
0<!
0d
0e
1g
1]
1Q
14
#780000
0!
0>
0c
12!
#785000
1!
1>
1c
02!
0f
1h
0p
1<!
0>!
1=!
1d
0]
1_
0^
0Q
1O
0P
04
03
12
#790000
0!
0>
0c
12!
#795000
1!
1>
1c
02!
1p
0<!
0d
1e
1]
1Q
14
#800000
0!
0>
0c
12!
#805000
1!
1>
1c
02!
1f
0p
1<!
0=!
1d
0]
1^
0Q
1P
04
13
#810000
0!
0>
0c
12!
#815000
1!
1>
1c
02!
1p
0<!
0d
0e
0g
0i
1k
1]
1Q
14
#820000
0!
0>
0c
12!
#825000
1!
1>
1c
02!
0f
0h
0j
1l
0p
1<!
0A!
1?!
1>!
1=!
1d
0]
1a
0`
0_
0^
0Q
1M
0N
0O
0P
04
03
02
01
10
#830000
0!
0>
0c
12!
#835000
1!
1>
1c
02!
1p
0<!
0d
1e
1]
1Q
14
#840000
0!
0>
0c
12!
#845000
1!
1>
1c
02!
1f
0p
1<!
0=!
1d
0]
1^
0Q
1P
04
13
#850000
0!
0>
0c
12!
#855000
1!
1>
1c
02!
1p
0<!
0d
0e
1g
1]
1Q
14
#860000
0!
0>
0c
12!
#865000
1!
1>
1c
02!
0f
1h
0p
1<!
0>!
1=!
1d
0]
1_
0^
0Q
1O
0P
04
03
12
#870000
0!
0>
0c
12!
#875000
1!
1>
1c
02!
1p
0<!
0d
1e
1]
1Q
14
#880000
0!
0>
0c
12!
#885000
1!
1>
1c
02!
1f
0p
1<!
0=!
1d
0]
1^
0Q
1P
04
13
#890000
0!
0>
0c
12!
#895000
1!
1>
1c
02!
1p
0<!
0d
0e
0g
1i
1]
1Q
14
#900000
0!
0>
0c
12!
#905000
1!
1>
1c
02!
0f
0h
1j
0p
1<!
0?!
1>!
1=!
1d
0]
1`
0_
0^
0Q
1N
0O
0P
04
03
02
11
#910000
0!
0>
0c
12!
#915000
1!
1>
1c
02!
1p
0<!
0d
1e
1]
1Q
14
#920000
0!
0>
0c
12!
#925000
1!
1>
1c
02!
1f
0p
1<!
0=!
1d
0]
1^
0Q
1P
04
13
#930000
0!
0>
0c
12!
#935000
1!
1>
1c
02!
1p
0<!
0d
0e
1g
1]
1Q
14
#940000
0!
0>
0c
12!
#945000
1!
1>
1c
02!
0f
1h
0p
1<!
0>!
1=!
1d
0]
1_
0^
0Q
1O
0P
04
03
12
#950000
0!
0>
0c
12!
#955000
1!
1>
1c
02!
1p
0<!
0d
1e
1]
1Q
14
#960000
0!
0>
0c
12!
#965000
1!
1>
1c
02!
1f
0p
1<!
0=!
1d
0]
1^
0Q
1P
04
13
#970000
0!
0>
0c
12!
#975000
1!
1>
1c
02!
1p
0<!
0d
0e
0g
0i
0k
1q
1]
1Q
14
#980000
0!
0>
0c
12!
#985000
1!
1>
1c
02!
0f
0h
0j
0l
0p
1r
0;!
1<!
1A!
1?!
1>!
1=!
1m
1d
0@!
1b
0]
0a
0`
0_
0^
1L
0Q
0M
0N
0O
0P
04
03
02
01
00
1/
#990000
0!
0>
0c
12!
1s
1!!
1#!
1%!
1'!
1)!
1+!
1-!
1/!
0:!
09!
08!
07!
06!
04!
05!
03!
1\
1I
1"
0R
0S
0T
0U
0V
0W
0X
0Y
0H
0G
0F
0E
0D
0C
0B
0A
0,
0+
0*
0)
0(
0'
0&
0%
#995000
1!
1>
1c
02!
1p
0s
0<!
0d
1e
1o
0B!
1]
0\
0p
0r
1Q
1;!
1<!
0I
14
0"
0Z
1d
0e
0o
0q
1B!
0K
0b
0]
0$
0L
0Q
04
0/
1Z
1K
1$
